{
   "Envelope" : {
      "Body" : {
         "GET_COLLEGES" : {
            "UA_DS_GET_COL" : [
               {
                  "UA_DS_PROG_VW" : {
                     "ACAD_CAREER" : "UGRD",
                     "URL" : "http://cals.arizona.edu",
                     "@class" : "R",
                     "INSTITUTION" : "UAZ00",
                     "DESCR100" : "College of Agriculture & Life Sciences",
                     "DESCRLONG" : "<p><strong>Agricultural science and business are at the core of a multi-trillion dollar industry in need of graduates worldwide.</strong></p><p>The College of Agriculture and Life Sciences is a small college within a large institution, representing an undergraduate population of 2,700 students in its 15 different majors.&nbsp; This translates into smaller class sizes in major courses for students as well as opportunities for regular interaction with faculty and staff. You can pursue dozens of challenging career choices in the College of Agriculture and Life Sciences (CALS).&nbsp;</p><p>Worldwide food production, processing, and distribution require scientists and managers to develop and use novel techniques in the biological and physical sciences as well as economics and management.&nbsp; The rigorous coursework and hands-on opportunities you will experience in CALS&#39; academic programs will prepare you for your chosen career or higher degree aspirations.&nbsp;</p><p>In fact, on average, 70 percent of Veterinary Science graduates who apply to Veterinary schools are accepted--the highest percentage of any Arizona university.</p><p>With 15 undergraduate majors, CALS&#39; undergraduate programs encompass science, business, technology, life sciences, and communications.&nbsp; CALS&#39; broad academic experience is supportive and interactive with a low student-to-faculty ratio.</p>",
                     "UA_ADM_REQS" : null,
                     "ACAD_PROG" : "UAGSC",
                     "EFFDT" : "1901-01-01"
                  }
               },
               {
                  "UA_DS_PROG_VW" : {
                     "ACAD_CAREER" : "UGRD",
                     "URL" : "http://capla.arizona.edu",
                     "@class" : "R",
                     "INSTITUTION" : "UAZ00",
                     "DESCR100" : "College of Architecture, Planning, & Landscape Architecture",
                     "DESCRLONG" : "<p><strong>Cultivating leading scholars and professionals in the design, planning and development of sustainable environments.&nbsp; </strong></p><p>The University of Arizona&rsquo;s College of Architecture, Planning and Landscape Architecture (CAPLA) is the nation&#39;s leader in sustainable design and planning for arid regions. CAPLA offers an extraordinary professional education inspired by our Sonoran setting and position within a world-class university.</p><p>CAPLA curricula is highly integrated across the professions of architecture, landscape architecture, and planning, and delivered within a small, caring, and diverse community strongly connected to practice. Our faculty engage students not only in conceptual design but also the fabrication and construction of tomorrow&#39;s buildings and landscapes. We work at all scales, from the parametric design of a single ceramic block to the planning of the 350 mile regional Sun Corridor. We pride ourselves on our sense of community where students have every opportunity to interact closely with our faculty and staff. CAPLA is a special place where one is not lost in a crowd and where one is highly employable upon graduation; 90-100% of CAPLA grads are employed in their field of study post-graduation.</p>",
                     "UA_ADM_REQS" : null,
                     "ACAD_PROG" : "UARCH",
                     "EFFDT" : "1901-01-01"
                  }
               },
               {
                  "UA_DS_PROG_VW" : {
                     "ACAD_CAREER" : "UGRD",
                     "URL" : "http://eller.arizona.edu",
                     "@class" : "R",
                     "INSTITUTION" : "UAZ00",
                     "DESCR100" : "Eller College of Management",
                     "DESCRLONG" : "<p><strong><span data-scayt_word=\"U.S\" data-scaytid=\"1\">U.S</span> News & World Report ranks Eller undergraduate programs No. 15 among public business schools and No. 25 among all business schools. </strong><br /><br />The Eller College offers countless opportunities for students to develop academically, professionally and personally.  Its top-ranked management information systems and entrepreneurship programs highlight the college's commitment to innovation.  That commitment drives its approach to education, preparing students for real-world success by combining internships, action-learning experiences, advanced learning technologies and numerous opportunities for leadership.<br /><br />Eller's McGuire Center for Entrepreneurship is ranked No. 2 among public programs by <span data-scayt_word=\"U.S\" data-scaytid=\"2\">U.S</span>. News & World Report.  Graduates often launch their own business or work with non-profit organizations or municipalities; many go on to earn graduate degrees.  Eller College graduates are recruited by top companies such as IBM, Gap, and Deloitte.</p>",
                     "UA_ADM_REQS" : null,
                     "ACAD_PROG" : "UBUSN",
                     "EFFDT" : "2011-08-01"
                  }
               },
               {
                  "UA_DS_PROG_VW" : {
                     "ACAD_CAREER" : "UGRD",
                     "URL" : "http://clas.arizona.edu",
                     "@class" : "R",
                     "INSTITUTION" : "UAZ00",
                     "DESCR100" : "Colleges of Letters, Arts and Science",
                     "DESCRLONG" : "<p>The UA Colleges of Letters, Arts and Science offers a signature University experience: opportunities for students to explore areas of study that cannot be contained within a single department or college. Consisting of the colleges of Fine Arts, Humanities, Science, and Social and Behavioral Sciences, this collaboration of Colleges advances innovative programs that cross the boundaries of humanities, arts, and the sciences. CLAS fosters interdisciplinary research and offers undergraduate and graduate students unparalleled opportunities to learn from and contribute to a diverse intellectual community.</p>",
                     "UA_ADM_REQS" : null,
                     "ACAD_PROG" : "UCLAS",
                     "EFFDT" : "1901-01-01"
                  }
               },
               {
                  "UA_DS_PROG_VW" : {
                     "ACAD_CAREER" : "UGRD",
                     "URL" : "www.coe.arizona.edu/mycoe",
                     "@class" : "R",
                     "INSTITUTION" : "UAZ00",
                     "DESCR100" : "College of Education",
                     "DESCRLONG" : "<p>The College of Education offers bachelor&#39;s degrees leading to state certification in early childhood, elementary, and special education, as well as majors in rehabilitation and deaf studies.&nbsp; We also have a minor program for students from a variety of majors interested in learning about adolescent development.&nbsp; Our teacher-preparation programs provide students with professionally based coursework and in-the-field experience before student teaching.&nbsp; Our student teaching includes the guidance of a master teacher and a UA faculty supervisor.&nbsp; Prospective students are encouraged to complete the General Information Session online at www.coe.arizona.edu/gis.&nbsp;</p><p>We offer post-baccalaureate teacher coursework and master&#39;s programs (including one for secondary certification) plus specialist and doctoral degrees in education.&nbsp; An administrative certification program is also available.</p>",
                     "UA_ADM_REQS" : null,
                     "ACAD_PROG" : "UEDUC",
                     "EFFDT" : "1901-01-01"
                  }
               },
               {
                  "UA_DS_PROG_VW" : {
                     "ACAD_CAREER" : "UGRD",
                     "URL" : "http://engineering.arizona.edu/",
                     "@class" : "R",
                     "INSTITUTION" : "UAZ00",
                     "DESCR100" : "College of Engineering",
                     "DESCRLONG" : "<p><strong>The College of Engineering offers a hands-on freshman experience with a 15-to-1 student-to-faculty ratio. </strong></p><p>Engineers design medical equipment and hypersonic aircraft, and preserve priceless art treasures.  They create electronic devices to protect the environment, and work in medicine, social services, community development and other areas that improve people's lives.  Whether it's exploring cutting-edge technologies, improving our quality of life, starting new businesses, or creating jobs, UA engineers are leaders.  UA engineering students enjoy all the advantages of attending a big, high-powered research university while they earn their degree from a college committed to each student's success.</p>",
                     "UA_ADM_REQS" : null,
                     "ACAD_PROG" : "UENGR",
                     "EFFDT" : "1901-01-01"
                  }
               },
               {
                  "UA_DS_PROG_VW" : {
                     "ACAD_CAREER" : "UGRD",
                     "URL" : "http://cfa.arizona.edu",
                     "@class" : "R",
                     "INSTITUTION" : "UAZ00",
                     "DESCR100" : "College of Fine Arts",
                     "DESCRLONG" : "<p><strong>The College of Fine Arts (CFA) offers a conservatory environment within the heart of a research extensive institution.&nbsp; </strong></p><p>The CFA has a rich legacy of providing an outstanding education for students as it strives to nurture a passion for the arts through mentoring, rigorous study, and the artistic discovery process.&nbsp; Success is built on a vibrant community of artists and scholars in art, dance, media arts, music, and theatre arts.&nbsp;</p><p>The CFA prepares talented scholars for a productive and viable life in the arts while contributing to the future of the arts in society.&nbsp;</p><p>Accomplished faculty and alumni contribute to the college&#39;s identity as a distinguished student-centered place of learning and creative inquiry.&nbsp; CFA faculty bring unmatched enthusiasm for helping students realize their academic potential and pursuing excellence in their individual areas of creative and research expertise.</p>",
                     "UA_ADM_REQS" : null,
                     "ACAD_PROG" : "UFNRT",
                     "EFFDT" : "1901-01-01"
                  }
               },
               {
                  "UA_DS_PROG_VW" : {
                     "ACAD_CAREER" : "UGRD",
                     "URL" : "http://humanities.arizona.edu/",
                     "@class" : "R",
                     "INSTITUTION" : "UAZ00",
                     "DESCR100" : "College of Humanities",
                     "DESCRLONG" : "<p><strong>UA humanities programs are devoted to the study of the world&#39;s languages, literatures and cultures.&nbsp; </strong></p><p>The College of Humanities is an excellent choice for students who have a passion for writing, reading and dialogue in English or other languages. The college&#39;s departments and programs help students develop communication skills, expand their knowledge across disciplines and cultures, and participate in study abroad programs.&nbsp;</p><p>Programs prepare students to enter careers that require leadership and strong writing skills, as well as experience conducting research and working in teams. In obtaining a liberal arts degree, students acquire skills and knowledge valuable in a multi-lingual world.</p>",
                     "UA_ADM_REQS" : null,
                     "ACAD_PROG" : "UHMNT",
                     "EFFDT" : "1901-01-01"
                  }
               },
               {
                  "UA_DS_PROG_VW" : {
                     "ACAD_CAREER" : "UGRD",
                     "URL" : "http://physiology.arizona.edu",
                     "@class" : "R",
                     "INSTITUTION" : "UAZ00",
                     "DESCR100" : "College of Medicine",
                     "DESCRLONG" : "<p>The undergraduate physiology major prepares students to continue their studies at the graduate level in health professions such as medicine, dentistry, physician assistant, physical therapy, or in academic and research programs in physiology, biology, and neuroscience.&nbsp; Students receive grounding in the biology and physical sciences and more extensive instruction in the physiological sciences such as integrated cellular physiology, endocrine physiology, exercise and environmental physiology, cardiovascular physiology and neurophysiology.&nbsp;</p><p>Physiology is the only undergraduate major offered through the College of Medicine.&nbsp; Upon completion of the program, the Bachelor of Science in Health Sciences degree, with a major in physiology is awarded by the College of Medicine.</p>",
                     "UA_ADM_REQS" : null,
                     "ACAD_PROG" : "UMDTC",
                     "EFFDT" : "1901-01-01"
                  }
               },
               {
                  "UA_DS_PROG_VW" : {
                     "ACAD_CAREER" : "UGRD",
                     "URL" : "http://nursing.arizona.edu",
                     "@class" : "R",
                     "INSTITUTION" : "UAZ00",
                     "DESCR100" : "College of Nursing",
                     "DESCRLONG" : "<p>Established in 1957, the University of Arizona College of Nursing is leading through innovative learning. As a top school in the country for strengthening the nursing workforce, the College of Nursing prepares entry and advanced clinical and scientific practice nurse leaders for delivering comprehensive, coordinated and compassionate health care; shaping health policy for individuals, families, communities and care systems; and advancing care through health informatics and technologies.</p><p>Students traditionally start out in the Pre-Professional Nursing major and apply to enter the professional Bachelor Science in Nursing (BSN) program at the end of the their sophomore year.</p><p>Pre-Professional Nursing students are encouraged to participate in the student organization, Professional Achievements in Nursing (P.A.I.N.). Pre-Professional Nursing students will explore nursing as a career and gain insight into admission to the nursing major.</p>",
                     "UA_ADM_REQS" : null,
                     "ACAD_PROG" : "UNURS",
                     "EFFDT" : "1901-01-01"
                  }
               },
               {
                  "UA_DS_PROG_VW" : {
                     "ACAD_CAREER" : "UGRD",
                     "URL" : "http://publichealth.arizona.edu",
                     "@class" : "R",
                     "INSTITUTION" : "UAZ00",
                     "DESCR100" : "Zuckerman College of Public Health",
                     "DESCRLONG" : "<p><strong>The Mel and Enid Zuckerman College of Public Health was the first college of public health in the Rocky Mountain Region and is the only college of public health in the State of Arizona.  </strong></p><p>The mission of public health is to use education, policies and programs to create and maintain a society with optimum human health.  Examples of public health successes include vaccination programs, a sanitation system that provides drinkable water and treats sewage, and health education campaigns that lower the rate of deaths related to tobacco use. </p><p>The college focuses on eliminating health disparities among diverse populations, particularly those in the American Southwest, such as Native American and Hispanic populations.</p>",
                     "UA_ADM_REQS" : null,
                     "ACAD_PROG" : "UPBLH",
                     "EFFDT" : "1901-01-01"
                  }
               },
               {
                  "UA_DS_PROG_VW" : {
                     "ACAD_CAREER" : "UGRD",
                     "URL" : "http://sbs.arizona.edu",
                     "@class" : "R",
                     "INSTITUTION" : "UAZ00",
                     "DESCR100" : "College of Social and Behavioral Sciences",
                     "DESCRLONG" : "<p><strong>The National Research Center ranks six College of Social and Behavioral Sciences departments in the top 20 in their respective fields.  </strong></p><p>Human beings weave a complex fabric that composes something we call \"society\".  The College of Social and Behavioral Sciences (SBS) focuses on the understanding of human beings and the societies and cultures they create.  Understanding human behavior by looking at our brains, language, history, governments, environment, and social norms is one of the keys to social change. </p><p>SBS is home to many popular majors and houses more than 50 of the general education courses that are taught by SBS faculty.  Faculty in SBS research real-world problems, ranging from homelessness in Tucson and food security in the third world, to the causes of depression and the preservation of Native American languages.  The interdisciplinary nature of many of our units makes for a dynamic and well-rounded educational experience.</p>",
                     "UA_ADM_REQS" : null,
                     "ACAD_PROG" : "USBSC",
                     "EFFDT" : "1901-01-01"
                  }
               },
               {
                  "UA_DS_PROG_VW" : {
                     "ACAD_CAREER" : "UGRD",
                     "URL" : "http://cos.arizona.edu",
                     "@class" : "R",
                     "INSTITUTION" : "UAZ00",
                     "DESCR100" : "College of Science",
                     "DESCRLONG" : "<p><strong>Eight UA science disciplines are in U.S. News &amp; World Report&#39;s top 20.&nbsp; </strong></p><p>The University of Arizona is a Research University engaged in extensive research.&nbsp; Why is that important for undergraduates?&nbsp; Research-focused universities attract top faculty members who in turn attract substantial grant money to perform their research, improving education opportunities for students.&nbsp;</p><p>Because of this, even as undergraduates, students have opportunities to become involved in cutting-edge research.&nbsp; In fact, approximately 60 percent of the undergraduates in the College of Science conduct independent research with faculty members.&nbsp; Undergraduates receive excellent quantitative and analytical training and coursework.&nbsp; They also learn teamwork, time management, critical thinking and problem-solving skills.&nbsp; Graduates move on to challenging jobs right out of college or to graduate, medical and professional schools where they enjoy very high acceptance rates.</p>",
                     "UA_ADM_REQS" : null,
                     "ACAD_PROG" : "USCNC",
                     "EFFDT" : "1901-01-01"
                  }
               },
               {
                  "UA_DS_PROG_VW" : {
                     "ACAD_CAREER" : "UGRD",
                     "URL" : "http://uas.arizona.edu/",
                     "@class" : "R",
                     "INSTITUTION" : "UAZ00",
                     "DESCR100" : "University of Arizona South",
                     "DESCRLONG" : "<p>The University of Arizona South, dedicated to individual student success, provides a quality learner-centered environment for professional and liberal arts education. &nbsp;The faculty, staff and administration facilitate student learning through teaching that accommodates diverse learning styles and needs of students, disciplined inquiry into relative issues and problems, and a sense of service to the greater community. Students typically transfer from local community colleges and pursue the last two years of one of 18 undergraduate degrees. &nbsp;Two Masters degrees as well as various certification programs are offered at UA South. The branch campus is committed to providing necessary resources, and supports a community of active learners seeking seamless pathways to success. &nbsp;Baccalaureate programs are offered through a &quot;Two Plus Two&quot; arrangement. &nbsp;Students can complete the equivalent of two years of course work at any Arizona community college or any accredited institution, and two years of course work at The University of Arizona South.</p><p>UA South operates sites at UA Sierra Vista, UA Douglas, at Pima Community College (East and Desert Vista campuses), the UA Science and Technology Park in Tucson, UA Pinal, and at UA Santa Cruz as well as programs through UA Online. UA South students obtain undergraduate and graduate degrees as they gain intellectual and professional capabilities to enhance their personal lives and careers. The campus locations also foster regional economic development and provide expertise for generating solutions to community problems through the education and public service activities of their faculty, staff, and students.</p>",
                     "UA_ADM_REQS" : null,
                     "ACAD_PROG" : "UUAZS",
                     "EFFDT" : "1901-01-01"
                  }
               }
            ]
         },
         "#tail" : " "
      }
   }
}
