[{"School":"Norton School Of Family & Consumer Sciences","URL":"http://ag.arizona.edu/fcs/","College":"College of Agriculture & Life Sciences","College 2":null,"Description":"Offers programs for careers in retailing, family studies, and family and consumer sciences education. Its closely tied with the community to ensure that programs reflect the changing needs of society."},
{"School":"School Of Animal And Comparative Biomedical Sciences","URL":"https://acbs.cals.arizona.edu/","College":"College of Agriculture & Life Sciences","College 2":null,"Description":"Integrates research and educational opportunities in the animal and biomedical sciences and addresses the need for trained professionals in these fields. Research areas include veterinary medicine, microbiology, animal science, food safety, livestock production, aquaculture, computational biology, environmental and reproductive physiology, animal nutrition, toxicology, the racetrack industry, and more."},
{"School":"School Of Anthropology","URL":"http://anthropology.arizona.edu/","College":"College of Social and Behavioral Sciences","College 2":null,"Description":"Offers academic training in cultural anthropology, linguistic anthropology, archaeology, and biological anthropology. The School is one of the few institutions to fully support the integrated subdiscipline approach to Anthropology, with research departments embracing Sociocultural Anthropology, Biological Anthropology, Archaeology and Linguistic Anthropology."},
{"School":"School Of Architecture ","URL":"http://capla.arizona.edu/architecture-program","College":"College of Architecture, Planning & Landscape Architecture ","College 2":null,"Description":"Education in Architecture at Arizona is centered on preparation for ethical and innovative professional practice, with a commitment to the integration of knowledge and skills from multiple domains affecting the design and study of the built environment."},
{"School":"School Of Art","URL":"http://art.arizona.edu/","College":"College of Fine Arts","College 2":null,"Description":"Provides programs designed to prepare undergraduate and graduate students for professional careers in studio art, graphic design and illustration, art history, and art education."},
{"School":"School Of Dance","URL":"http://dance.arizona.edu/","College":"College of Fine Arts","College 2":null,"Description":"The School of Dance provides studies in the art, teaching and analysis of dance. The dance curriculum offers technique in ballet, jazz dance and modern dance, choreography and ample performing experience, leading to the Bachelor of Fine Arts with a major in dance."},
{"School":"School Of Earth And Environmental Sciences","URL":"http://cos.arizona.edu/content/school-of-earth-and-environmental-sciences","College":"College of Science","College 2":"College of Agriculture & Life Sciences","Description":"SEES produces new knowledge about earth and environmental processes and human-environment interactions at all geographic and temporal scales, provides the scientific basis for environmental and climate policy, trains the next generation of earth and environmental scientists, and disseminates knowledge and solutions for the benefit of students and society."},
{"School":"School Of Geography And Development","URL":"http://geography.arizona.edu/","College":"College of Social and Behavioral Sciences","College 2":null,"Description":"Provides degrees in geography, urban and regional development, environmental studies, and geographic information systems technology. The School covers the entire range of contemporary geography, including the sustainability of cities, human impacts of global climate change, and water resource issues and policy."},
{"School":"School Of Government And Public Policy","URL":"http://sgpp.arizona.edu/","College":"College of Social and Behavioral Sciences","College 2":null,"Description":"The School of Government and Public Policy prepares men and women for leadership positions in the public and nonprofit sectors, as well as in private organizations which interact with government."},
{"School":"School Of Information","URL":"https://si.arizona.edu/","College":"College of Social and Behavioral Sciences","College 2":null,"Description":"Focuses on the many aspects of information organization, management, or use, and its impact on individuals and society. Students learn to understand and apply multidisciplinary knowledge in a variety of professional settings, advancing what we know about information amid massive digital shifts in the 21st century."},
{"School":"School Of International Languages, Literatures And Cultures (SILLC)","URL":"http://sillc.arizona.edu/","College":"College of Humanities","College 2":null,"Description":"The University of Arizona School of International Languages, Literatures, and Cultures (SILLC) is a federation of the following independent departments and programs: Africana Studies, Critical Languages, Classics, East Asian Studies, French and Italian, German Studies, Religious Studies, and Russian and Slavic Studies."},
{"School":"School Of Journalism","URL":"http://journalism.arizona.edu/","College":"College of Social and Behavioral Sciences","College 2":null,"Description":"Provides students with the intellectual training and professional skills that journalists need to cover complex events and issues."},
{"School":"School Of Landscape Architecture & Planning","URL":"http://capla.arizona.edu/school-landscape-architecture-planning","College":"College of Architecture, Planning & Landscape Architecture ","College 2":null,"Description":"A graduate professional degree program which emphasizes landscape and human ecology, socio-cultural and behavioral factors, landscape aesthetics, and artistic principles in a variety of design, planning, and management scenarios."},
{"School":"School Of Mathematical Sciences","URL":"http://cos.arizona.edu/content/school-of-mathematical-sciences","College":"College of Science","College 2":null,"Description":"Discovers new knowledge and statistics to address critical mathematical, scientific, engineering, and technological challenges of our time. The school is a federation of the Department of Mathematics, the Graduate Interdisciplinary Program in Applied Mathematics, the Graduate Interdisciplinary Program in Statistics, and centers and institutes focused on mathematics education and outreach."},
{"School":"School Of Middle Eastern And North African Studies","URL":"http://menas.arizona.edu/","College":"College of Social and Behavioral Sciences","College 2":null,"Description":"The School is a multi-disciplinary unit focusing on the region extending from Morocco to Afghanistan which includes the Arab world, Iran, Israel and Turkey. It provides language courses in Arabic, Persian, and Turkish, and undergraduate and graduate studies in culture, history, religion, politics and conflict."},
{"School":"School Of Mind, Brain And Behavior","URL":"http://web.mbb.arizona.edu/","College":"College of Science","College 2":null,"Description":"The School of Mind, Brain, and Behavior represents a multidisciplinary group of departments and programs dedicated to the teaching and discovery of principles and mechanisms underlying minds, brains, and behaviors. The School was formed to foster interdisciplinary dialog and collaboration among students and faculty and to create new educational and research opportunities unconstrained by traditional disciplinary boundaries."},
{"School":"School Of Music","URL":"http://music.arizona.edu/","College":"College of Fine Arts","College 2":null,"Description":"Offers a wide variety of degree programs and musical experiences, and presents over 300 concerts and recitals each year."},
{"School":"School Of Natural Resources & The Environment","URL":"http://snre.arizona.edu/","College":"College of Agriculture & Life Sciences","College 2":null,"Description":"Provides program areas for landscape studies, rangeland and forest resources, watershed resources, and wildlife and fisheries resources."},
{"School":"School Of Plant Sciences","URL":"http://cals.arizona.edu/spls/home","College":"College of Agriculture & Life Sciences","College 2":null,"Description":"The School of Plant Sciences is a vigorous, cutting-edge, and comprehensive academic unit of the University of Arizona, whose scientists are devoted to the study of plants, the organisms that underpin the survival of terrestrial life. Research programs within the School examine how plants grow, how they respond to their environment, how they evolved, how they can be manipulated, and their fungal, bacterial, and viral interactions."},
{"School":"School Of Sociology","URL":"https://sociology.arizona.edu/","College":"College of Social and Behavioral Sciences","College 2":null,"Description":"Explores and analyzes issues vital to our personal lives, our communities, our nation, and the world, focusing on diverse topics such as the family, religion, education, politics, sex roles, popular culture, and crime. The undergraduate major provides a foundation for careers in many fields including government, business, and nonprofit agencies."},
{"School":"School Of Sustainable Engineered Systems","URL":"http://www.portal.environment.arizona.edu/academics/departments/school-sustainable-engineered-systems","College":"College of Engineering","College 2":null,"Description":"The School of Sustainable Engineered Systems will be a leader in the improved design of linkages between our natural and engineered systems to sustainably provide material resources, water, energy, infrastructure, and manufactured products through innovative education, research, and outreach."},
{"School":"School Of Theatre, Film And Television","URL":"http://tftv.arizona.edu/","College":"College of Fine Arts","College 2":null,"Description":"Offers students comprehensive training in the art and the business of storytelling and the workings of the entertainment industry in an incredibly rich learning environment. With state-of- the- art equipment, and a faculty made up of working professionals."}]
